30 25 10
382 923
79 195 1 0
327 462 1 0
400 158 1 0
332 204 1 0
684 740 1 0
348 191 1 0
444 130 1 0
348 207 1 0
433 182 1 0
680 737 1 0
651 753 1 0
324 199 1 0
297 236 1 0
278 418 1 0
330 460 1 0
354 498 1 0
316 224 1 0
121 229 1 0
283 462 1 0
720 690 1 0
356 495 1 0
336 158 1 0
444 168 1 0
366 231 1 0
428 129 1 0
284 158 0 0
333 236 0 0
294 240 0 0
125 190 0 0
363 224 0 0
