30 25 20
430 213
867 734 1 0
655 109 1 0
616 250 1 0
108 629 1 0
227 551 1 0
699 531 1 0
237 269 1 0
520 169 1 0
585 132 1 0
128 74 1 0
633 141 1 0
694 536 1 0
602 102 1 0
559 107 1 0
265 318 1 0
224 547 1 0
842 759 1 0
131 51 1 0
652 157 1 0
655 141 1 0
130 651 1 0
684 527 1 0
539 165 1 0
536 200 1 0
127 35 1 0
730 482 0 0
826 775 0 0
853 685 0 0
129 98 0 0
833 697 0 0
