30 25 20
83 94
194 637 1 0
838 481 1 0
513 705 1 0
748 842 1 0
898 229 1 0
946 724 1 0
147 543 1 0
229 347 1 0
215 680 1 0
131 922 1 0
937 223 1 0
217 668 1 0
179 879 1 0
883 180 1 0
781 871 1 0
126 539 1 0
99 533 1 0
163 536 1 0
198 671 1 0
173 681 1 0
154 529 1 0
259 727 1 0
875 447 1 0
199 389 1 0
895 198 1 0
928 243 0 0
151 514 0 0
474 740 0 0
707 838 0 0
515 742 0 0
