30 25 25
796 921
115 68 1 0
269 130 1 0
429 238 1 0
555 462 1 0
592 470 1 0
704 940 1 0
840 730 1 0
808 321 1 0
57 113 1 0
331 455 1 0
676 560 1 0
794 648 1 0
71 148 1 0
761 310 1 0
676 585 1 0
231 85 1 0
779 669 1 0
574 505 1 0
850 312 1 0
697 563 1 0
816 352 1 0
668 915 1 0
307 422 1 0
296 491 1 0
798 608 1 0
749 971 0 0
402 205 0 0
748 672 0 0
702 983 0 0
387 259 0 0
