40 30 20
492 50
612 426 1 0
917 164 1 0
646 245 1 0
208 499 1 0
618 536 1 0
286 83 1 0
361 236 1 0
392 776 1 0
336 866 1 0
299 919 1 0
610 521 1 0
236 474 1 0
361 765 1 0
318 125 1 0
644 553 1 0
660 244 1 0
596 516 1 0
633 526 1 0
908 211 1 0
424 796 1 0
397 261 1 0
648 239 1 0
372 816 1 0
343 194 1 0
333 886 1 0
606 247 1 0
651 442 1 0
292 824 1 0
648 401 1 0
435 730 1 0
951 155 0 0
948 186 0 0
239 69 0 0
576 503 0 0
307 105 0 0
247 536 0 0
311 227 0 0
635 439 0 0
625 435 0 0
415 807 0 0
