40 30 25
915 510
738 211 1 0
678 941 1 0
788 422 1 0
478 587 1 0
921 694 1 0
86 421 1 0
162 694 1 0
553 474 1 0
887 685 1 0
586 87 1 0
442 67 1 0
590 741 1 0
623 99 1 0
552 704 1 0
445 35 1 0
869 658 1 0
544 697 1 0
471 577 1 0
710 936 1 0
472 579 1 0
713 182 1 0
184 662 1 0
700 205 1 0
441 81 1 0
891 676 1 0
504 450 1 0
896 715 1 0
770 258 1 0
488 553 1 0
752 424 1 0
875 729 0 0
555 47 0 0
443 594 0 0
607 54 0 0
426 17 0 0
80 391 0 0
745 461 0 0
671 978 0 0
761 467 0 0
920 692 0 0
