40 30 30
363 845
857 92 1 0
843 926 1 0
224 769 1 0
758 890 1 0
603 445 1 0
401 70 1 0
500 558 1 0
416 430 1 0
832 325 1 0
723 163 1 0
711 949 1 0
258 566 1 0
193 916 1 0
75 623 1 0
72 194 1 0
117 161 1 0
875 141 1 0
478 548 1 0
614 481 1 0
691 963 1 0
771 184 1 0
796 954 1 0
72 155 1 0
740 179 1 0
725 920 1 0
696 178 1 0
479 553 1 0
200 965 1 0
298 581 1 0
833 44 1 0
362 77 0 0
845 130 0 0
869 932 0 0
821 897 0 0
848 877 0 0
606 474 0 0
102 579 0 0
54 198 0 0
709 884 0 0
412 113 0 0
