40 30 30
108 918
942 947 1 0
860 779 1 0
143 140 1 0
77 790 1 0
73 895 1 0
895 693 1 0
589 838 1 0
342 704 1 0
219 934 1 0
360 606 1 0
676 345 1 0
86 427 1 0
941 263 1 0
527 451 1 0
393 880 1 0
938 735 1 0
176 907 1 0
894 702 1 0
293 724 1 0
860 715 1 0
952 284 1 0
191 186 1 0
34 825 1 0
260 961 1 0
386 579 1 0
35 831 1 0
358 720 1 0
42 810 1 0
692 340 1 0
707 378 1 0
612 870 0 0
695 378 0 0
903 922 0 0
88 428 0 0
120 435 0 0
933 668 0 0
500 411 0 0
908 816 0 0
896 231 0 0
96 780 0 0
