30 15 8
610 100
111 253 1 0
538 762 1 0
452 506 1 0
500 616 1 0
737 132 1 0
324 829 1 0
593 266 1 0
876 835 1 0
698 387 1 0
473 46 1 0
442 449 1 0
276 359 1 0
46 917 1 0
585 472 1 0
535 172 1 0
813 56 0 0
118 936 0 0
811 240 0 0
960 586 0 0
368 455 0 0
837 454 0 0
144 268 0 0
182 911 0 0
8 226 0 0
726 254 0 0
830 593 0 0
699 805 0 0
366 66 0 0
237 952 0 0
86 811 0 0
