40 20 10
305 654
542 820 1 0
710 691 1 0
709 345 1 0
786 137 1 0
579 3 1 0
605 249 1 0
904 523 1 0
661 967 1 0
929 751 1 0
28 902 1 0
278 423 1 0
685 114 1 0
742 424 1 0
592 170 1 0
257 328 1 0
793 493 1 0
663 467 1 0
295 739 1 0
719 566 1 0
964 56 1 0
618 642 0 0
905 101 0 0
145 444 0 0
644 144 0 0
331 202 0 0
956 829 0 0
404 968 0 0
268 301 0 0
683 315 0 0
486 645 0 0
403 670 0 0
106 282 0 0
341 364 0 0
839 964 0 0
755 213 0 0
745 296 0 0
311 556 0 0
284 75 0 0
389 944 0 0
432 811 0 0
