50 25 13
881 795
713 254 1 0
896 805 1 0
957 556 1 0
352 741 1 0
28 586 1 0
396 609 1 0
765 68 1 0
309 825 1 0
21 320 1 0
162 534 1 0
932 112 1 0
143 547 1 0
696 324 1 0
961 931 1 0
385 537 1 0
704 515 1 0
821 575 1 0
22 313 1 0
340 90 1 0
839 606 1 0
86 142 1 0
937 216 1 0
132 497 1 0
791 123 1 0
597 419 1 0
952 64 0 0
58 777 0 0
477 382 0 0
292 995 0 0
756 297 0 0
76 50 0 0
158 456 0 0
787 614 0 0
495 51 0 0
3 735 0 0
207 557 0 0
526 939 0 0
764 782 0 0
101 855 0 0
899 668 0 0
116 1 0 0
967 676 0 0
612 358 0 0
376 123 0 0
601 927 0 0
176 82 0 0
389 217 0 0
626 657 0 0
220 973 0 0
476 802 0 0
