60 30 15
737 135
511 827 1 0
779 858 1 0
461 503 1 0
247 53 1 0
354 1 1 0
18 350 1 0
448 392 1 0
848 762 1 0
869 141 1 0
311 411 1 0
957 430 1 0
176 107 1 0
378 606 1 0
470 727 1 0
608 340 1 0
90 407 1 0
30 467 1 0
525 213 1 0
971 323 1 0
191 28 1 0
709 453 1 0
305 859 1 0
176 757 1 0
566 274 1 0
732 163 1 0
127 980 1 0
88 682 1 0
719 454 1 0
646 525 1 0
963 719 1 0
343 462 0 0
47 200 0 0
584 113 0 0
469 950 0 0
637 617 0 0
431 350 0 0
21 265 0 0
655 584 0 0
870 54 0 0
132 367 0 0
91 747 0 0
184 56 0 0
251 485 0 0
113 113 0 0
228 368 0 0
77 124 0 0
327 921 0 0
49 852 0 0
982 374 0 0
514 478 0 0
195 978 0 0
685 588 0 0
83 486 0 0
117 38 0 0
579 492 0 0
740 962 0 0
913 342 0 0
636 518 0 0
534 463 0 0
677 11 0 0
