60 30 15
467 945
928 277 1 0
612 545 1 0
125 308 1 0
524 512 1 0
309 871 1 0
98 658 1 0
154 902 1 0
709 153 1 0
332 15 1 0
43 758 1 0
134 627 1 0
273 597 1 0
465 392 1 0
164 420 1 0
949 528 1 0
40 869 1 0
589 306 1 0
559 241 1 0
898 824 1 0
108 344 1 0
187 497 1 0
808 239 1 0
44 223 1 0
733 409 1 0
484 355 1 0
402 185 1 0
739 504 1 0
990 470 1 0
900 469 1 0
104 808 1 0
407 559 0 0
614 434 0 0
914 263 0 0
268 785 0 0
185 95 0 0
16 284 0 0
340 963 0 0
860 525 0 0
272 406 0 0
388 519 0 0
984 434 0 0
800 495 0 0
230 260 0 0
443 776 0 0
348 639 0 0
645 362 0 0
608 104 0 0
342 538 0 0
640 362 0 0
285 504 0 0
426 907 0 0
160 485 0 0
503 22 0 0
420 884 0 0
840 251 0 0
536 547 0 0
457 268 0 0
149 913 0 0
286 137 0 0
872 522 0 0
