70 35 18
499 603
367 511 1 0
235 371 1 0
722 39 1 0
132 339 1 0
703 795 1 0
477 163 1 0
708 493 1 0
40 343 1 0
582 184 1 0
990 721 1 0
830 794 1 0
596 701 1 0
441 289 1 0
246 382 1 0
128 977 1 0
747 799 1 0
221 149 1 0
81 333 1 0
184 405 1 0
867 451 1 0
905 398 1 0
480 870 1 0
582 368 1 0
398 514 1 0
135 924 1 0
694 748 1 0
856 797 1 0
362 49 1 0
719 385 1 0
60 631 1 0
143 895 1 0
193 523 1 0
828 595 1 0
310 707 1 0
711 431 1 0
49 925 0 0
140 933 0 0
436 719 0 0
651 411 0 0
389 1 0 0
556 757 0 0
337 8 0 0
127 785 0 0
618 652 0 0
298 631 0 0
343 108 0 0
884 944 0 0
92 272 0 0
122 769 0 0
745 839 0 0
463 296 0 0
575 194 0 0
378 918 0 0
511 936 0 0
506 341 0 0
117 756 0 0
805 691 0 0
318 797 0 0
322 912 0 0
30 548 0 0
91 253 0 0
918 531 0 0
312 509 0 0
324 756 0 0
623 768 0 0
826 135 0 0
640 198 0 0
339 600 0 0
705 977 0 0
187 41 0 0
