200 100 50
696 961
110 142 1 0
305 351 1 0
678 602 1 0
525 76 1 0
321 239 1 0
232 200 1 0
236 76 1 0
395 78 1 0
621 849 1 0
80 927 1 0
151 266 1 0
696 537 1 0
16 173 1 0
511 684 1 0
367 880 1 0
539 638 1 0
233 414 1 0
272 296 1 0
38 468 1 0
224 105 1 0
711 598 1 0
745 553 1 0
451 56 1 0
95 992 1 0
827 946 1 0
820 663 1 0
802 803 1 0
821 967 1 0
537 809 1 0
247 506 1 0
770 288 1 0
49 367 1 0
339 314 1 0
164 41 1 0
717 822 1 0
649 898 1 0
262 483 1 0
337 756 1 0
228 230 1 0
339 121 1 0
859 698 1 0
417 963 1 0
192 664 1 0
876 342 1 0
855 928 1 0
370 277 1 0
842 895 1 0
36 218 1 0
259 769 1 0
693 266 1 0
28 152 1 0
384 984 1 0
45 333 1 0
433 121 1 0
678 687 1 0
823 640 1 0
454 394 1 0
200 267 1 0
427 426 1 0
254 606 1 0
258 248 1 0
72 222 1 0
641 492 1 0
548 168 1 0
331 659 1 0
803 171 1 0
404 659 1 0
398 492 1 0
869 453 1 0
456 481 1 0
803 386 1 0
20 791 1 0
547 810 1 0
424 695 1 0
265 72 1 0
425 607 1 0
73 818 1 0
170 478 1 0
805 279 1 0
711 258 1 0
393 962 1 0
599 637 1 0
627 878 1 0
434 380 1 0
510 634 1 0
150 882 1 0
185 232 1 0
480 413 1 0
116 817 1 0
42 888 1 0
51 995 1 0
640 417 1 0
830 941 1 0
943 467 1 0
167 97 1 0
735 590 1 0
22 139 1 0
344 222 1 0
369 290 1 0
12 210 1 0
16 693 0 0
796 54 0 0
297 1000 0 0
534 410 0 0
335 239 0 0
932 164 0 0
248 762 0 0
760 548 0 0
559 713 0 0
831 759 0 0
839 890 0 0
372 870 0 0
529 913 0 0
767 7 0 0
120 15 0 0
501 604 0 0
939 470 0 0
297 939 0 0
499 875 0 0
819 519 0 0
653 461 0 0
136 292 0 0
442 278 0 0
123 40 0 0
797 720 0 0
971 672 0 0
357 313 0 0
380 169 0 0
732 330 0 0
754 520 0 0
559 44 0 0
812 788 0 0
262 828 0 0
717 699 0 0
966 681 0 0
289 842 0 0
254 659 0 0
622 793 0 0
567 390 0 0
448 765 0 0
816 104 0 0
890 208 0 0
608 895 0 0
905 86 0 0
645 926 0 0
123 202 0 0
413 314 0 0
401 585 0 0
547 888 0 0
353 476 0 0
764 649 0 0
975 316 0 0
290 728 0 0
820 865 0 0
216 820 0 0
927 732 0 0
856 497 0 0
116 118 0 0
602 804 0 0
562 359 0 0
93 726 0 0
618 11 0 0
835 96 0 0
268 115 0 0
16 97 0 0
660 328 0 0
611 420 0 0
149 405 0 0
184 125 0 0
556 158 0 0
797 461 0 0
905 707 0 0
964 324 0 0
802 65 0 0
697 615 0 0
352 19 0 0
100 618 0 0
677 589 0 0
561 375 0 0
494 97 0 0
934 624 0 0
254 62 0 0
276 737 0 0
700 246 0 0
330 98 0 0
118 70 0 0
142 851 0 0
197 131 0 0
853 801 0 0
27 235 0 0
142 544 0 0
282 466 0 0
962 673 0 0
670 558 0 0
446 239 0 0
702 389 0 0
300 428 0 0
448 934 0 0
719 521 0 0
523 501 0 0
