350 175 87
739 399
271 737 1 0
789 133 1 0
918 610 1 0
431 231 1 0
311 663 1 0
120 428 1 0
510 643 1 0
238 232 1 0
108 334 1 0
360 67 1 0
521 247 1 0
415 587 1 0
80 619 1 0
263 734 1 0
621 863 1 0
210 676 1 0
705 10 1 0
215 348 1 0
402 174 1 0
857 183 1 0
876 849 1 0
978 458 1 0
293 927 1 0
346 304 1 0
584 194 1 0
499 31 1 0
96 996 1 0
991 817 1 0
319 940 1 0
771 342 1 0
391 240 1 0
477 24 1 0
25 410 1 0
909 815 1 0
429 150 1 0
928 166 1 0
993 899 1 0
363 246 1 0
493 664 1 0
910 97 1 0
630 456 1 0
22 762 1 0
681 313 1 0
151 659 1 0
619 394 1 0
18 167 1 0
71 691 1 0
516 545 1 0
647 417 1 0
623 4 1 0
846 490 1 0
141 261 1 0
150 933 1 0
641 414 1 0
662 694 1 0
833 93 1 0
838 73 1 0
569 996 1 0
493 581 1 0
705 417 1 0
563 883 1 0
643 553 1 0
427 335 1 0
925 257 1 0
571 150 1 0
886 685 1 0
935 240 1 0
846 228 1 0
258 945 1 0
726 188 1 0
551 882 1 0
947 682 1 0
152 333 1 0
93 301 1 0
948 209 1 0
853 540 1 0
854 26 1 0
294 140 1 0
500 317 1 0
770 462 1 0
685 906 1 0
72 761 1 0
246 171 1 0
629 44 1 0
583 100 1 0
306 391 1 0
185 116 1 0
780 10 1 0
635 771 1 0
857 381 1 0
966 860 1 0
793 530 1 0
317 541 1 0
3 864 1 0
297 500 1 0
43 610 1 0
996 853 1 0
568 664 1 0
836 841 1 0
2 131 1 0
971 209 1 0
147 374 1 0
92 75 1 0
789 132 1 0
8 956 1 0
669 237 1 0
203 223 1 0
583 37 1 0
360 325 1 0
275 566 1 0
564 845 1 0
894 668 1 0
633 334 1 0
603 729 1 0
729 603 1 0
635 667 1 0
463 486 1 0
331 163 1 0
1000 696 1 0
358 856 1 0
39 703 1 0
882 931 1 0
586 545 1 0
279 691 1 0
815 145 1 0
229 148 1 0
547 32 1 0
941 516 1 0
308 29 1 0
187 590 1 0
685 64 1 0
130 971 1 0
378 19 1 0
713 541 1 0
141 402 1 0
261 437 1 0
920 165 1 0
695 432 1 0
476 563 1 0
559 574 1 0
330 177 1 0
993 580 1 0
999 532 1 0
191 786 1 0
157 99 1 0
407 942 1 0
504 89 1 0
783 650 1 0
462 841 1 0
998 428 1 0
787 946 1 0
44 349 1 0
195 669 1 0
781 5 1 0
41 37 1 0
33 749 1 0
208 239 1 0
544 428 1 0
640 841 1 0
349 22 1 0
900 40 1 0
360 385 1 0
185 101 1 0
816 458 1 0
809 552 1 0
665 40 1 0
873 103 1 0
338 743 1 0
992 184 1 0
730 976 1 0
417 518 1 0
309 959 1 0
338 89 1 0
401 94 1 0
462 481 1 0
814 520 0 0
608 291 0 0
989 279 0 0
465 781 0 0
383 898 0 0
636 999 0 0
738 729 0 0
912 370 0 0
8 291 0 0
862 86 0 0
72 43 0 0
939 582 0 0
81 702 0 0
264 823 0 0
860 344 0 0
657 994 0 0
146 24 0 0
242 165 0 0
782 353 0 0
120 64 0 0
795 690 0 0
511 366 0 0
553 376 0 0
80 571 0 0
76 577 0 0
174 622 0 0
718 501 0 0
521 295 0 0
279 385 0 0
346 714 0 0
298 476 0 0
688 412 0 0
601 494 0 0
882 381 0 0
539 701 0 0
590 447 0 0
829 465 0 0
890 479 0 0
527 227 0 0
593 785 0 0
265 402 0 0
952 216 0 0
357 174 0 0
737 46 0 0
758 168 0 0
368 209 0 0
634 153 0 0
756 632 0 0
828 570 0 0
728 532 0 0
837 716 0 0
659 682 0 0
420 609 0 0
580 871 0 0
619 131 0 0
402 581 0 0
452 548 0 0
572 702 0 0
756 789 0 0
204 718 0 0
303 659 0 0
929 94 0 0
100 407 0 0
797 965 0 0
938 412 0 0
564 386 0 0
99 390 0 0
6 8 0 0
664 954 0 0
279 649 0 0
565 1000 0 0
197 622 0 0
215 248 0 0
761 13 0 0
691 604 0 0
506 445 0 0
88 146 0 0
286 862 0 0
240 30 0 0
19 52 0 0
971 861 0 0
829 886 0 0
757 780 0 0
121 761 0 0
121 314 0 0
265 627 0 0
182 579 0 0
400 525 0 0
521 951 0 0
137 264 0 0
19 242 0 0
499 691 0 0
292 437 0 0
280 115 0 0
375 717 0 0
830 325 0 0
128 667 0 0
317 544 0 0
324 308 0 0
690 999 0 0
280 186 0 0
707 493 0 0
597 210 0 0
940 233 0 0
338 783 0 0
666 973 0 0
906 927 0 0
470 641 0 0
712 20 0 0
636 629 0 0
672 462 0 0
141 703 0 0
72 640 0 0
938 122 0 0
855 232 0 0
674 568 0 0
788 282 0 0
661 576 0 0
714 303 0 0
713 411 0 0
259 394 0 0
973 300 0 0
835 179 0 0
517 39 0 0
78 64 0 0
973 52 0 0
308 625 0 0
137 899 0 0
627 730 0 0
725 177 0 0
254 102 0 0
1000 572 0 0
222 530 0 0
998 380 0 0
518 400 0 0
655 51 0 0
571 574 0 0
730 46 0 0
59 118 0 0
702 884 0 0
349 23 0 0
722 206 0 0
306 628 0 0
202 112 0 0
10 107 0 0
61 984 0 0
898 376 0 0
870 908 0 0
852 75 0 0
248 512 0 0
536 807 0 0
901 632 0 0
490 637 0 0
32 419 0 0
148 233 0 0
58 201 0 0
109 962 0 0
202 790 0 0
466 960 0 0
224 639 0 0
436 921 0 0
452 684 0 0
546 37 0 0
682 495 0 0
880 43 0 0
57 293 0 0
376 499 0 0
92 426 0 0
161 573 0 0
329 498 0 0
749 538 0 0
656 805 0 0
407 770 0 0
390 442 0 0
132 13 0 0
