350 175 87
363 959
513 542 1 0
56 368 1 0
734 669 1 0
645 510 1 0
434 940 1 0
890 378 1 0
887 212 1 0
605 195 1 0
655 592 1 0
419 307 1 0
286 186 1 0
2 1 1 0
682 941 1 0
78 371 1 0
265 940 1 0
746 417 1 0
778 17 1 0
82 690 1 0
775 455 1 0
863 921 1 0
568 92 1 0
403 600 1 0
300 818 1 0
317 24 1 0
740 349 1 0
991 512 1 0
264 394 1 0
174 652 1 0
606 261 1 0
178 32 1 0
528 27 1 0
239 541 1 0
694 610 1 0
162 18 1 0
59 413 1 0
784 719 1 0
500 205 1 0
68 198 1 0
87 484 1 0
615 260 1 0
344 252 1 0
85 111 1 0
962 208 1 0
149 111 1 0
244 425 1 0
258 681 1 0
737 627 1 0
440 954 1 0
653 337 1 0
280 593 1 0
61 390 1 0
520 153 1 0
910 733 1 0
244 53 1 0
568 516 1 0
850 965 1 0
92 853 1 0
629 352 1 0
972 277 1 0
943 290 1 0
587 112 1 0
469 56 1 0
485 925 1 0
222 537 1 0
511 125 1 0
772 831 1 0
26 66 1 0
990 262 1 0
404 582 1 0
645 685 1 0
608 746 1 0
109 67 1 0
767 992 1 0
134 284 1 0
199 82 1 0
844 588 1 0
91 220 1 0
84 762 1 0
371 471 1 0
193 889 1 0
517 120 1 0
861 251 1 0
980 721 1 0
779 575 1 0
216 103 1 0
101 253 1 0
846 908 1 0
985 679 1 0
850 421 1 0
770 434 1 0
626 934 1 0
340 965 1 0
373 324 1 0
263 514 1 0
843 883 1 0
160 707 1 0
614 218 1 0
124 550 1 0
562 700 1 0
279 715 1 0
345 400 1 0
333 862 1 0
771 499 1 0
342 9 1 0
748 340 1 0
287 436 1 0
245 976 1 0
654 639 1 0
439 520 1 0
518 966 1 0
430 840 1 0
741 174 1 0
907 993 1 0
258 832 1 0
188 177 1 0
618 491 1 0
880 489 1 0
412 719 1 0
645 151 1 0
244 752 1 0
29 469 1 0
326 327 1 0
129 186 1 0
284 79 1 0
300 280 1 0
481 950 1 0
131 390 1 0
750 267 1 0
963 470 1 0
76 71 1 0
819 465 1 0
124 807 1 0
676 138 1 0
764 441 1 0
47 328 1 0
259 628 1 0
493 440 1 0
878 789 1 0
893 907 1 0
460 320 1 0
353 364 1 0
135 867 1 0
98 412 1 0
740 681 1 0
742 657 1 0
285 422 1 0
958 172 1 0
396 286 1 0
445 795 1 0
699 51 1 0
862 327 1 0
458 383 1 0
797 102 1 0
825 910 1 0
465 779 1 0
382 112 1 0
160 212 1 0
353 597 1 0
955 852 1 0
535 977 1 0
668 779 1 0
404 139 1 0
726 971 1 0
539 881 1 0
363 124 1 0
651 446 1 0
292 506 1 0
882 782 1 0
828 285 1 0
629 185 1 0
85 42 1 0
524 303 1 0
744 712 1 0
360 587 1 0
943 253 1 0
694 899 0 0
94 738 0 0
376 191 0 0
481 436 0 0
626 495 0 0
303 773 0 0
634 234 0 0
544 827 0 0
843 388 0 0
634 270 0 0
644 983 0 0
538 536 0 0
93 694 0 0
290 736 0 0
33 766 0 0
309 527 0 0
979 286 0 0
995 423 0 0
962 649 0 0
433 137 0 0
230 897 0 0
760 838 0 0
88 590 0 0
674 848 0 0
621 15 0 0
192 786 0 0
108 848 0 0
919 165 0 0
496 413 0 0
676 604 0 0
303 165 0 0
382 114 0 0
956 931 0 0
347 939 0 0
578 993 0 0
798 80 0 0
898 38 0 0
231 863 0 0
39 634 0 0
819 963 0 0
1000 735 0 0
941 775 0 0
846 963 0 0
869 433 0 0
718 307 0 0
712 621 0 0
521 457 0 0
569 822 0 0
394 721 0 0
519 605 0 0
760 113 0 0
638 35 0 0
213 199 0 0
602 609 0 0
93 896 0 0
585 394 0 0
267 949 0 0
713 167 0 0
569 152 0 0
571 444 0 0
407 320 0 0
366 233 0 0
390 722 0 0
750 60 0 0
565 265 0 0
574 652 0 0
859 767 0 0
795 905 0 0
726 684 0 0
923 50 0 0
52 5 0 0
199 431 0 0
680 9 0 0
501 569 0 0
575 649 0 0
57 598 0 0
251 118 0 0
68 945 0 0
967 215 0 0
957 762 0 0
477 962 0 0
504 834 0 0
653 123 0 0
188 122 0 0
958 284 0 0
706 148 0 0
762 540 0 0
194 961 0 0
229 594 0 0
296 341 0 0
814 555 0 0
135 896 0 0
905 619 0 0
876 406 0 0
196 64 0 0
463 769 0 0
641 5 0 0
462 582 0 0
500 294 0 0
282 485 0 0
701 583 0 0
621 773 0 0
728 714 0 0
884 240 0 0
947 641 0 0
946 754 0 0
591 688 0 0
390 472 0 0
763 71 0 0
78 247 0 0
141 271 0 0
851 218 0 0
538 306 0 0
526 544 0 0
649 496 0 0
84 164 0 0
483 191 0 0
806 551 0 0
573 850 0 0
356 820 0 0
297 109 0 0
300 66 0 0
98 432 0 0
21 455 0 0
487 211 0 0
120 547 0 0
450 313 0 0
553 611 0 0
920 872 0 0
779 583 0 0
699 816 0 0
682 622 0 0
567 273 0 0
21 785 0 0
739 746 0 0
851 853 0 0
785 215 0 0
60 748 0 0
575 115 0 0
236 646 0 0
710 334 0 0
380 372 0 0
658 473 0 0
10 982 0 0
275 432 0 0
618 781 0 0
372 822 0 0
172 155 0 0
723 952 0 0
488 530 0 0
624 2 0 0
544 323 0 0
881 735 0 0
165 720 0 0
221 472 0 0
324 140 0 0
568 690 0 0
929 233 0 0
190 740 0 0
741 265 0 0
59 505 0 0
445 897 0 0
507 884 0 0
267 427 0 0
453 905 0 0
361 756 0 0
141 468 0 0
763 46 0 0
794 700 0 0
708 118 0 0
285 111 0 0
116 864 0 0
932 388 0 0
1000 89 0 0
54 749 0 0
