400 200 100
386 977
990 648 1 0
424 636 1 0
998 367 1 0
779 669 1 0
494 287 1 0
764 393 1 0
444 749 1 0
114 882 1 0
99 340 1 0
889 736 1 0
558 157 1 0
769 364 1 0
928 414 1 0
194 366 1 0
969 998 1 0
702 904 1 0
156 528 1 0
399 794 1 0
110 910 1 0
444 519 1 0
745 32 1 0
934 280 1 0
890 726 1 0
103 359 1 0
447 714 1 0
797 79 1 0
701 161 1 0
164 386 1 0
889 211 1 0
210 339 1 0
518 976 1 0
70 397 1 0
911 614 1 0
363 467 1 0
165 393 1 0
522 58 1 0
3 163 1 0
726 60 1 0
232 140 1 0
20 335 1 0
532 178 1 0
986 389 1 0
143 596 1 0
743 572 1 0
982 420 1 0
620 521 1 0
264 964 1 0
897 48 1 0
600 835 1 0
187 536 1 0
19 904 1 0
477 157 1 0
453 781 1 0
629 533 1 0
567 199 1 0
504 544 1 0
875 133 1 0
984 577 1 0
643 912 1 0
356 714 1 0
719 626 1 0
649 127 1 0
750 378 1 0
592 970 1 0
151 526 1 0
520 175 1 0
32 554 1 0
933 64 1 0
935 328 1 0
137 564 1 0
494 296 1 0
659 635 1 0
348 851 1 0
861 621 1 0
162 114 1 0
938 588 1 0
196 429 1 0
136 207 1 0
561 193 1 0
418 185 1 0
380 200 1 0
857 393 1 0
68 943 1 0
211 547 1 0
872 188 1 0
364 847 1 0
47 223 1 0
981 776 1 0
479 779 1 0
235 328 1 0
933 933 1 0
658 186 1 0
700 996 1 0
393 104 1 0
17 409 1 0
103 934 1 0
759 473 1 0
934 334 1 0
958 232 1 0
790 54 1 0
346 385 1 0
662 679 1 0
64 419 1 0
431 583 1 0
612 238 1 0
265 874 1 0
689 191 1 0
611 180 1 0
569 672 1 0
348 298 1 0
942 747 1 0
839 441 1 0
39 904 1 0
871 439 1 0
575 605 1 0
847 785 1 0
251 814 1 0
229 189 1 0
355 189 1 0
360 121 1 0
978 491 1 0
192 499 1 0
369 432 1 0
517 994 1 0
793 208 1 0
474 565 1 0
360 23 1 0
443 147 1 0
166 389 1 0
29 746 1 0
455 733 1 0
253 84 1 0
908 315 1 0
811 335 1 0
694 325 1 0
584 900 1 0
698 139 1 0
335 275 1 0
180 225 1 0
864 964 1 0
485 997 1 0
786 817 1 0
334 540 1 0
426 402 1 0
666 306 1 0
847 361 1 0
710 617 1 0
504 815 1 0
453 833 1 0
696 679 1 0
130 873 1 0
80 186 1 0
476 494 1 0
486 874 1 0
833 930 1 0
997 411 1 0
340 302 1 0
613 494 1 0
897 627 1 0
228 312 1 0
188 364 1 0
77 522 1 0
116 208 1 0
96 291 1 0
909 488 1 0
482 843 1 0
214 444 1 0
519 153 1 0
136 739 1 0
53 800 1 0
241 698 1 0
955 405 1 0
712 564 1 0
58 404 1 0
817 867 1 0
522 963 1 0
499 686 1 0
16 231 1 0
25 555 1 0
150 502 1 0
422 39 1 0
851 821 1 0
700 668 1 0
733 731 1 0
158 162 1 0
757 853 1 0
588 402 1 0
10 163 1 0
535 398 1 0
73 955 1 0
134 405 1 0
67 589 1 0
257 798 1 0
502 159 1 0
684 194 1 0
481 194 1 0
22 655 1 0
723 132 1 0
842 898 1 0
251 527 1 0
605 532 0 0
93 505 0 0
794 241 0 0
523 654 0 0
866 757 0 0
386 851 0 0
88 640 0 0
623 173 0 0
700 404 0 0
458 738 0 0
686 916 0 0
369 789 0 0
558 375 0 0
632 200 0 0
937 813 0 0
760 900 0 0
895 953 0 0
869 989 0 0
282 136 0 0
389 292 0 0
185 537 0 0
806 165 0 0
190 997 0 0
343 146 0 0
957 545 0 0
345 535 0 0
287 73 0 0
719 697 0 0
302 416 0 0
660 512 0 0
945 118 0 0
412 356 0 0
866 472 0 0
206 903 0 0
214 334 0 0
824 711 0 0
252 273 0 0
916 31 0 0
690 924 0 0
73 926 0 0
740 972 0 0
173 184 0 0
15 275 0 0
130 772 0 0
573 401 0 0
662 86 0 0
402 236 0 0
520 454 0 0
407 474 0 0
999 681 0 0
716 340 0 0
813 989 0 0
19 374 0 0
380 955 0 0
338 124 0 0
360 376 0 0
185 543 0 0
29 148 0 0
901 151 0 0
666 88 0 0
653 291 0 0
575 609 0 0
739 920 0 0
555 362 0 0
61 823 0 0
760 817 0 0
421 146 0 0
731 424 0 0
485 191 0 0
639 735 0 0
855 629 0 0
137 808 0 0
244 287 0 0
10 259 0 0
947 592 0 0
552 164 0 0
332 526 0 0
878 833 0 0
734 177 0 0
685 768 0 0
262 718 0 0
474 945 0 0
1 303 0 0
114 295 0 0
843 413 0 0
444 773 0 0
697 657 0 0
806 750 0 0
524 110 0 0
827 414 0 0
887 812 0 0
403 271 0 0
363 881 0 0
363 38 0 0
593 272 0 0
542 576 0 0
488 767 0 0
276 991 0 0
23 387 0 0
963 562 0 0
333 207 0 0
395 835 0 0
359 285 0 0
158 714 0 0
218 92 0 0
200 803 0 0
498 747 0 0
67 827 0 0
314 309 0 0
134 409 0 0
493 29 0 0
615 370 0 0
180 987 0 0
6 717 0 0
401 232 0 0
972 401 0 0
851 78 0 0
333 219 0 0
539 316 0 0
218 124 0 0
406 953 0 0
161 291 0 0
756 358 0 0
552 999 0 0
873 169 0 0
304 424 0 0
186 759 0 0
391 718 0 0
58 570 0 0
121 250 0 0
477 691 0 0
696 972 0 0
181 938 0 0
945 356 0 0
435 340 0 0
632 925 0 0
520 284 0 0
823 502 0 0
373 165 0 0
795 939 0 0
616 694 0 0
368 932 0 0
87 799 0 0
982 637 0 0
266 811 0 0
388 781 0 0
100 183 0 0
684 115 0 0
154 874 0 0
463 974 0 0
216 973 0 0
514 739 0 0
880 621 0 0
841 429 0 0
100 175 0 0
427 711 0 0
470 523 0 0
62 846 0 0
654 812 0 0
501 357 0 0
532 415 0 0
583 568 0 0
622 74 0 0
650 654 0 0
28 79 0 0
431 937 0 0
858 88 0 0
904 639 0 0
158 605 0 0
647 894 0 0
122 956 0 0
705 363 0 0
484 473 0 0
435 908 0 0
309 415 0 0
147 95 0 0
471 261 0 0
331 770 0 0
594 828 0 0
465 861 0 0
177 688 0 0
402 637 0 0
768 349 0 0
769 914 0 0
913 820 0 0
754 322 0 0
663 566 0 0
652 391 0 0
58 464 0 0
382 463 0 0
213 15 0 0
121 212 0 0
820 334 0 0
30 75 0 0
378 398 0 0
466 992 0 0
794 710 0 0
311 602 0 0
860 443 0 0
237 370 0 0
