400 200 100
105 26
947 952 1 0
333 970 1 0
276 358 1 0
60 875 1 0
451 137 1 0
99 299 1 0
992 89 1 0
896 852 1 0
664 17 1 0
409 365 1 0
339 485 1 0
57 745 1 0
254 40 1 0
800 838 1 0
159 415 1 0
720 929 1 0
832 922 1 0
327 543 1 0
989 892 1 0
945 607 1 0
545 8 1 0
493 135 1 0
374 95 1 0
236 988 1 0
323 103 1 0
821 934 1 0
483 102 1 0
957 19 1 0
580 256 1 0
733 98 1 0
381 261 1 0
852 683 1 0
572 943 1 0
14 349 1 0
230 330 1 0
349 464 1 0
528 420 1 0
887 565 1 0
54 359 1 0
737 835 1 0
274 333 1 0
739 467 1 0
975 796 1 0
499 605 1 0
870 882 1 0
470 404 1 0
25 394 1 0
76 680 1 0
646 767 1 0
99 3 1 0
575 137 1 0
463 759 1 0
655 710 1 0
697 605 1 0
943 178 1 0
933 817 1 0
595 50 1 0
409 36 1 0
182 886 1 0
915 537 1 0
365 69 1 0
122 381 1 0
411 277 1 0
816 913 1 0
272 939 1 0
445 873 1 0
719 720 1 0
327 402 1 0
312 5 1 0
730 488 1 0
3 24 1 0
603 189 1 0
639 695 1 0
313 1 1 0
594 868 1 0
981 606 1 0
201 922 1 0
729 635 1 0
442 624 1 0
272 436 1 0
400 491 1 0
77 704 1 0
943 128 1 0
222 139 1 0
457 226 1 0
722 428 1 0
848 241 1 0
832 113 1 0
493 196 1 0
322 634 1 0
817 344 1 0
322 740 1 0
90 105 1 0
492 687 1 0
679 944 1 0
421 442 1 0
255 246 1 0
250 62 1 0
415 49 1 0
43 80 1 0
19 12 1 0
105 322 1 0
216 115 1 0
326 276 1 0
983 736 1 0
4 887 1 0
580 319 1 0
33 467 1 0
175 305 1 0
306 810 1 0
266 231 1 0
622 652 1 0
797 53 1 0
844 356 1 0
423 578 1 0
926 635 1 0
894 564 1 0
8 515 1 0
193 41 1 0
28 966 1 0
435 595 1 0
624 1 1 0
962 212 1 0
363 379 1 0
641 467 1 0
995 490 1 0
3 581 1 0
475 921 1 0
186 15 1 0
971 818 1 0
375 683 1 0
624 578 1 0
482 338 1 0
182 333 1 0
987 585 1 0
963 304 1 0
146 470 1 0
837 590 1 0
933 77 1 0
263 132 1 0
872 326 1 0
544 129 1 0
506 497 1 0
892 400 1 0
621 29 1 0
136 57 1 0
30 509 1 0
664 983 1 0
222 117 1 0
379 90 1 0
928 419 1 0
697 240 1 0
684 689 1 0
764 327 1 0
811 146 1 0
837 751 1 0
524 643 1 0
168 878 1 0
815 124 1 0
866 843 1 0
272 783 1 0
538 431 1 0
269 608 1 0
118 289 1 0
219 869 1 0
976 9 1 0
695 929 1 0
113 863 1 0
817 763 1 0
683 493 1 0
805 756 1 0
661 90 1 0
221 433 1 0
707 336 1 0
553 14 1 0
933 601 1 0
809 916 1 0
537 749 1 0
92 635 1 0
139 535 1 0
850 892 1 0
43 66 1 0
391 600 1 0
168 253 1 0
120 301 1 0
804 422 1 0
707 419 1 0
928 838 1 0
858 737 1 0
466 89 1 0
697 894 1 0
403 90 1 0
641 933 1 0
958 36 1 0
387 423 1 0
654 59 1 0
528 503 1 0
119 148 1 0
169 99 1 0
64 931 1 0
603 863 0 0
31 828 0 0
197 54 0 0
605 748 0 0
301 387 0 0
908 400 0 0
111 828 0 0
206 94 0 0
911 289 0 0
16 531 0 0
858 980 0 0
439 28 0 0
104 49 0 0
593 433 0 0
69 191 0 0
384 407 0 0
776 104 0 0
194 709 0 0
75 686 0 0
204 706 0 0
916 470 0 0
425 749 0 0
547 593 0 0
509 924 0 0
269 768 0 0
159 921 0 0
632 649 0 0
510 514 0 0
929 360 0 0
627 472 0 0
251 591 0 0
184 99 0 0
424 632 0 0
519 747 0 0
260 50 0 0
318 130 0 0
808 635 0 0
105 832 0 0
341 69 0 0
561 799 0 0
97 876 0 0
692 112 0 0
191 486 0 0
268 349 0 0
858 596 0 0
468 105 0 0
530 649 0 0
905 485 0 0
299 152 0 0
461 533 0 0
25 219 0 0
82 570 0 0
817 481 0 0
197 561 0 0
716 543 0 0
689 460 0 0
285 675 0 0
149 991 0 0
829 884 0 0
352 733 0 0
484 638 0 0
133 548 0 0
771 357 0 0
994 111 0 0
656 856 0 0
637 947 0 0
994 208 0 0
944 876 0 0
286 705 0 0
412 64 0 0
481 712 0 0
997 788 0 0
687 253 0 0
997 358 0 0
35 947 0 0
251 466 0 0
903 158 0 0
261 305 0 0
263 348 0 0
443 888 0 0
721 423 0 0
590 549 0 0
215 674 0 0
129 494 0 0
65 490 0 0
855 149 0 0
100 679 0 0
901 959 0 0
432 955 0 0
857 765 0 0
881 882 0 0
460 645 0 0
179 387 0 0
188 561 0 0
107 662 0 0
92 791 0 0
988 862 0 0
24 579 0 0
552 377 0 0
708 474 0 0
200 277 0 0
92 376 0 0
389 421 0 0
362 517 0 0
847 917 0 0
51 444 0 0
790 74 0 0
555 732 0 0
416 277 0 0
410 714 0 0
834 514 0 0
326 398 0 0
922 436 0 0
107 797 0 0
756 788 0 0
761 463 0 0
780 833 0 0
318 986 0 0
284 322 0 0
651 303 0 0
302 762 0 0
826 379 0 0
76 11 0 0
192 24 0 0
381 574 0 0
888 613 0 0
555 689 0 0
537 116 0 0
491 434 0 0
168 643 0 0
701 251 0 0
217 869 0 0
629 415 0 0
722 201 0 0
72 173 0 0
120 291 0 0
131 674 0 0
823 234 0 0
169 123 0 0
804 650 0 0
419 812 0 0
509 554 0 0
733 218 0 0
731 953 0 0
167 400 0 0
230 5 0 0
841 752 0 0
546 772 0 0
2 535 0 0
890 926 0 0
699 174 0 0
130 987 0 0
407 863 0 0
680 657 0 0
854 253 0 0
366 568 0 0
306 783 0 0
785 354 0 0
489 470 0 0
694 445 0 0
389 669 0 0
710 755 0 0
57 680 0 0
999 548 0 0
733 264 0 0
565 50 0 0
155 631 0 0
120 29 0 0
474 22 0 0
664 208 0 0
35 575 0 0
934 340 0 0
322 304 0 0
997 739 0 0
295 221 0 0
753 800 0 0
870 369 0 0
255 445 0 0
44 70 0 0
669 173 0 0
84 931 0 0
723 443 0 0
393 789 0 0
610 891 0 0
108 410 0 0
732 199 0 0
735 210 0 0
109 588 0 0
787 214 0 0
280 655 0 0
975 654 0 0
548 754 0 0
523 349 0 0
137 148 0 0
388 360 0 0
662 919 0 0
592 119 0 0
965 891 0 0
644 539 0 0
361 339 0 0
