450 225 112
557 902
597 220 1 0
4 781 1 0
327 44 1 0
724 946 1 0
482 159 1 0
205 78 1 0
571 851 1 0
650 426 1 0
322 260 1 0
472 977 1 0
913 895 1 0
51 694 1 0
567 67 1 0
242 676 1 0
22 618 1 0
260 333 1 0
706 815 1 0
740 949 1 0
780 696 1 0
305 647 1 0
613 893 1 0
744 152 1 0
335 89 1 0
366 563 1 0
472 481 1 0
608 405 1 0
32 811 1 0
350 10 1 0
709 201 1 0
984 711 1 0
357 238 1 0
239 10 1 0
717 104 1 0
655 15 1 0
519 214 1 0
547 484 1 0
369 356 1 0
66 63 1 0
891 341 1 0
705 535 1 0
472 416 1 0
113 496 1 0
554 342 1 0
706 443 1 0
784 539 1 0
792 132 1 0
89 387 1 0
77 374 1 0
37 287 1 0
647 484 1 0
617 504 1 0
555 874 1 0
764 388 1 0
682 540 1 0
16 166 1 0
947 156 1 0
907 434 1 0
538 90 1 0
150 593 1 0
535 863 1 0
829 242 1 0
682 314 1 0
513 603 1 0
54 79 1 0
731 670 1 0
387 765 1 0
650 566 1 0
360 375 1 0
238 164 1 0
880 605 1 0
758 381 1 0
605 156 1 0
15 79 1 0
443 91 1 0
765 924 1 0
950 359 1 0
615 341 1 0
982 466 1 0
662 979 1 0
378 927 1 0
679 498 1 0
627 25 1 0
930 888 1 0
690 300 1 0
49 340 1 0
261 420 1 0
900 58 1 0
814 709 1 0
389 766 1 0
236 771 1 0
616 182 1 0
294 931 1 0
189 277 1 0
565 626 1 0
304 102 1 0
649 772 1 0
417 662 1 0
431 103 1 0
504 213 1 0
666 177 1 0
339 373 1 0
504 440 1 0
196 596 1 0
174 513 1 0
204 87 1 0
870 466 1 0
349 776 1 0
999 100 1 0
22 130 1 0
382 971 1 0
479 345 1 0
932 80 1 0
296 920 1 0
872 833 1 0
462 845 1 0
871 215 1 0
374 735 1 0
529 488 1 0
204 115 1 0
214 174 1 0
62 275 1 0
608 577 1 0
652 905 1 0
266 832 1 0
171 619 1 0
394 437 1 0
427 111 1 0
219 370 1 0
862 208 1 0
870 718 1 0
786 577 1 0
281 604 1 0
768 930 1 0
873 918 1 0
381 761 1 0
389 286 1 0
377 202 1 0
258 870 1 0
415 258 1 0
150 9 1 0
580 408 1 0
407 864 1 0
428 590 1 0
428 73 1 0
705 335 1 0
887 790 1 0
805 529 1 0
105 754 1 0
26 940 1 0
846 753 1 0
527 3 1 0
547 120 1 0
454 379 1 0
173 946 1 0
332 546 1 0
707 29 1 0
545 499 1 0
775 389 1 0
961 230 1 0
409 71 1 0
842 820 1 0
933 681 1 0
278 308 1 0
942 752 1 0
3 624 1 0
843 545 1 0
338 36 1 0
536 700 1 0
485 495 1 0
16 238 1 0
764 274 1 0
850 742 1 0
482 601 1 0
394 746 1 0
779 736 1 0
169 995 1 0
336 985 1 0
95 623 1 0
239 11 1 0
88 437 1 0
677 476 1 0
29 446 1 0
85 842 1 0
829 498 1 0
478 878 1 0
299 8 1 0
879 202 1 0
490 675 1 0
694 997 1 0
470 505 1 0
602 604 1 0
181 157 1 0
213 627 1 0
6 680 1 0
918 829 1 0
232 99 1 0
910 632 1 0
886 672 1 0
242 661 1 0
361 666 1 0
864 727 1 0
7 586 1 0
277 881 1 0
163 107 1 0
70 444 1 0
757 64 1 0
654 353 1 0
76 85 1 0
8 652 1 0
305 748 1 0
589 675 1 0
61 937 1 0
151 174 1 0
205 575 1 0
15 294 1 0
461 876 1 0
660 650 1 0
739 202 1 0
366 888 1 0
870 768 1 0
386 577 1 0
319 657 1 0
894 760 1 0
414 523 1 0
216 140 1 0
784 787 0 0
258 252 0 0
887 207 0 0
968 515 0 0
323 35 0 0
349 797 0 0
920 944 0 0
3 200 0 0
639 850 0 0
985 54 0 0
770 65 0 0
538 130 0 0
298 883 0 0
788 928 0 0
451 199 0 0
150 811 0 0
939 893 0 0
133 289 0 0
719 540 0 0
585 785 0 0
886 68 0 0
996 713 0 0
458 206 0 0
915 265 0 0
396 889 0 0
247 236 0 0
719 158 0 0
774 551 0 0
848 638 0 0
534 914 0 0
836 986 0 0
10 256 0 0
115 690 0 0
696 538 0 0
491 554 0 0
41 448 0 0
856 755 0 0
603 682 0 0
187 910 0 0
236 676 0 0
9 279 0 0
768 81 0 0
733 887 0 0
461 161 0 0
200 185 0 0
837 334 0 0
448 810 0 0
579 243 0 0
503 939 0 0
698 774 0 0
70 848 0 0
34 680 0 0
505 6 0 0
396 298 0 0
452 57 0 0
232 138 0 0
790 43 0 0
364 726 0 0
525 844 0 0
88 152 0 0
899 86 0 0
369 595 0 0
560 208 0 0
299 949 0 0
767 462 0 0
322 30 0 0
13 239 0 0
842 992 0 0
111 567 0 0
29 478 0 0
220 325 0 0
517 994 0 0
60 807 0 0
659 634 0 0
502 533 0 0
264 427 0 0
264 36 0 0
537 57 0 0
370 773 0 0
960 422 0 0
420 149 0 0
793 897 0 0
42 685 0 0
402 608 0 0
804 780 0 0
199 633 0 0
459 380 0 0
60 533 0 0
521 258 0 0
941 758 0 0
697 210 0 0
482 459 0 0
231 259 0 0
559 946 0 0
544 239 0 0
475 885 0 0
53 22 0 0
303 456 0 0
804 203 0 0
2 89 0 0
256 823 0 0
802 193 0 0
994 564 0 0
949 378 0 0
352 452 0 0
537 306 0 0
372 812 0 0
57 199 0 0
440 883 0 0
545 203 0 0
906 328 0 0
876 667 0 0
498 403 0 0
548 578 0 0
643 953 0 0
513 171 0 0
449 702 0 0
237 150 0 0
880 743 0 0
160 866 0 0
110 510 0 0
280 45 0 0
954 489 0 0
724 936 0 0
452 564 0 0
184 799 0 0
206 974 0 0
547 807 0 0
972 442 0 0
191 160 0 0
832 312 0 0
233 765 0 0
913 27 0 0
178 985 0 0
565 923 0 0
253 437 0 0
597 382 0 0
202 768 0 0
560 146 0 0
34 902 0 0
530 327 0 0
596 492 0 0
358 331 0 0
759 914 0 0
162 429 0 0
169 353 0 0
802 638 0 0
272 120 0 0
720 469 0 0
495 434 0 0
962 98 0 0
675 706 0 0
460 389 0 0
607 754 0 0
704 64 0 0
196 664 0 0
555 26 0 0
941 66 0 0
969 229 0 0
370 843 0 0
604 947 0 0
155 102 0 0
681 509 0 0
399 195 0 0
20 531 0 0
333 328 0 0
910 11 0 0
996 394 0 0
355 147 0 0
534 76 0 0
361 577 0 0
770 270 0 0
949 582 0 0
578 562 0 0
112 254 0 0
658 251 0 0
915 644 0 0
787 607 0 0
294 179 0 0
966 823 0 0
511 87 0 0
572 452 0 0
641 781 0 0
902 932 0 0
555 873 0 0
761 597 0 0
667 935 0 0
668 106 0 0
914 516 0 0
141 43 0 0
250 669 0 0
952 506 0 0
717 304 0 0
745 627 0 0
856 890 0 0
981 475 0 0
432 72 0 0
60 149 0 0
84 586 0 0
434 857 0 0
339 381 0 0
798 670 0 0
223 65 0 0
458 497 0 0
498 946 0 0
228 367 0 0
7 954 0 0
4 847 0 0
949 775 0 0
143 643 0 0
279 96 0 0
35 264 0 0
104 22 0 0
685 20 0 0
397 745 0 0
983 112 0 0
299 321 0 0
430 975 0 0
251 182 0 0
523 110 0 0
291 826 0 0
712 643 0 0
240 805 0 0
149 922 0 0
624 737 0 0
