30 25 25
879 149
922 775 1 0
575 862 1 0
614 958 1 0
419 735 1 0
98 860 1 0
892 560 1 0
992 193 1 0
966 968 1 0
42 777 1 0
489 387 1 0
299 862 1 0
265 580 1 0
953 722 1 0
619 269 1 0
283 991 1 0
722 965 1 0
687 410 1 0
128 738 1 0
816 717 1 0
744 360 1 0
894 581 1 0
900 624 1 0
662 443 1 0
890 356 1 0
948 582 1 0
613 921 0 0
190 705 0 0
169 814 0 0
283 529 0 0
606 445 0 0
