40 30 10
118 901
778 623 1 0
212 252 1 0
654 357 1 0
453 745 1 0
326 400 1 0
409 870 1 0
684 441 1 0
596 791 1 0
643 378 1 0
258 720 1 0
333 505 1 0
907 865 1 0
445 521 1 0
8 929 1 0
198 613 1 0
660 305 1 0
243 414 1 0
62 570 1 0
817 551 1 0
47 722 1 0
666 175 1 0
103 290 1 0
955 446 1 0
341 716 1 0
88 756 1 0
694 412 1 0
295 310 1 0
252 603 1 0
146 515 1 0
523 516 1 0
681 614 0 0
217 161 0 0
23 404 0 0
437 973 0 0
844 489 0 0
9 400 0 0
619 110 0 0
170 254 0 0
764 261 0 0
456 41 0 0
