40 30 25
285 782
347 436 1 0
967 907 1 0
549 138 1 0
576 874 1 0
551 647 1 0
612 765 1 0
372 948 1 0
826 205 1 0
705 720 1 0
393 816 1 0
657 802 1 0
763 39 1 0
837 813 1 0
129 991 1 0
406 243 1 0
247 259 1 0
973 405 1 0
602 184 1 0
971 177 1 0
519 321 1 0
916 374 1 0
125 564 1 0
290 460 1 0
158 908 1 0
415 303 1 0
666 200 1 0
771 486 1 0
989 380 1 0
287 983 1 0
298 407 1 0
184 573 0 0
1000 853 0 0
552 836 0 0
284 718 0 0
274 372 0 0
742 231 0 0
517 684 0 0
792 655 0 0
771 905 0 0
373 548 0 0
