40 30 25
878 750
683 210 1 0
655 67 1 0
416 133 1 0
426 321 1 0
781 868 1 0
495 994 1 0
831 899 1 0
865 734 1 0
603 248 1 0
138 257 1 0
964 113 1 0
541 864 1 0
79 722 1 0
98 386 1 0
909 143 1 0
117 740 1 0
626 855 1 0
352 781 1 0
860 378 1 0
362 924 1 0
229 508 1 0
680 910 1 0
133 82 1 0
747 141 1 0
481 980 1 0
954 605 1 0
904 276 1 0
497 241 1 0
552 399 1 0
906 829 1 0
501 625 0 0
379 629 0 0
490 422 0 0
681 862 0 0
91 974 0 0
572 651 0 0
313 664 0 0
26 652 0 0
327 658 0 0
16 842 0 0
