40 30 30
8 390
711 265 1 0
717 888 1 0
496 516 1 0
290 979 1 0
740 155 1 0
721 103 1 0
568 479 1 0
405 687 1 0
480 21 1 0
418 707 1 0
88 505 1 0
974 734 1 0
656 174 1 0
478 473 1 0
701 621 1 0
580 783 1 0
901 453 1 0
952 282 1 0
507 730 1 0
261 678 1 0
477 145 1 0
6 453 1 0
714 138 1 0
880 131 1 0
383 175 1 0
761 74 1 0
988 397 1 0
577 329 1 0
579 848 1 0
992 992 1 0
840 627 0 0
872 48 0 0
367 992 0 0
693 872 0 0
402 413 0 0
466 611 0 0
651 200 0 0
198 376 0 0
537 85 0 0
143 34 0 0
