30 15 10
306 47
846 766 1 0
298 862 1 0
302 451 1 0
689 603 1 0
50 397 1 0
764 788 1 0
551 910 1 0
643 141 1 0
947 138 1 0
976 735 1 0
133 988 1 0
604 684 1 0
615 458 1 0
950 850 1 0
104 375 1 0
445 966 0 0
711 799 0 0
488 466 0 0
533 608 0 0
420 58 0 0
59 288 0 0
222 468 0 0
620 993 0 0
978 783 0 0
708 684 0 0
652 597 0 0
777 909 0 0
740 835 0 0
640 59 0 0
839 704 0 0
