30 15 10
723 987
971 780 1 0
794 861 1 0
571 252 1 0
368 239 1 0
748 907 1 0
31 88 1 0
87 755 1 0
862 32 1 0
89 716 1 0
210 783 1 0
895 244 1 0
67 107 1 0
309 664 1 0
721 853 1 0
689 129 1 0
638 974 0 0
420 771 0 0
909 534 0 0
753 858 0 0
452 198 0 0
65 934 0 0
574 167 0 0
749 200 0 0
508 842 0 0
646 885 0 0
117 9 0 0
242 331 0 0
619 85 0 0
991 466 0 0
929 586 0 0
