30 20 10
843 379
633 774 1 0
95 58 1 0
281 696 1 0
266 995 1 0
286 846 1 0
586 7 1 0
112 369 1 0
553 183 1 0
137 204 1 0
130 145 1 0
723 898 1 0
470 754 1 0
651 91 1 0
865 957 1 0
61 475 1 0
38 475 1 0
201 124 1 0
418 3 1 0
332 690 1 0
95 596 1 0
425 367 0 0
343 945 0 0
753 881 0 0
45 156 0 0
233 257 0 0
710 982 0 0
108 174 0 0
845 5 0 0
352 393 0 0
728 303 0 0
