30 25 10
405 942
72 954 1 0
389 394 1 0
725 918 1 0
103 451 1 0
361 87 1 0
272 295 1 0
200 414 1 0
32 582 1 0
771 372 1 0
478 597 1 0
755 67 1 0
154 475 1 0
133 573 1 0
947 90 1 0
895 441 1 0
170 984 1 0
610 322 1 0
423 15 1 0
480 43 1 0
675 849 1 0
352 385 1 0
38 8 1 0
591 439 1 0
937 412 1 0
785 792 1 0
62 758 0 0
473 944 0 0
247 214 0 0
693 763 0 0
613 608 0 0
