40 25 10
299 626
341 169 1 0
302 969 1 0
392 59 1 0
621 513 1 0
546 53 1 0
210 676 1 0
717 434 1 0
360 240 1 0
527 530 1 0
232 531 1 0
459 6 1 0
284 800 1 0
609 55 1 0
595 402 1 0
682 487 1 0
892 649 1 0
535 719 1 0
550 555 1 0
506 611 1 0
935 948 1 0
855 123 1 0
459 801 1 0
356 291 1 0
664 538 1 0
815 38 1 0
119 662 0 0
935 238 0 0
558 908 0 0
405 311 0 0
804 782 0 0
364 773 0 0
444 664 0 0
63 27 0 0
406 746 0 0
346 261 0 0
114 858 0 0
989 992 0 0
743 686 0 0
964 569 0 0
331 409 0 0
