40 30 10
763 620
781 162 1 0
66 984 1 0
595 209 1 0
926 408 1 0
212 903 1 0
495 951 1 0
218 888 1 0
582 353 1 0
519 381 1 0
947 88 1 0
648 821 1 0
78 213 1 0
261 564 1 0
650 858 1 0
272 90 1 0
238 789 1 0
276 613 1 0
190 751 1 0
88 409 1 0
298 293 1 0
644 430 1 0
717 287 1 0
883 155 1 0
617 200 1 0
378 306 1 0
858 102 1 0
272 779 1 0
720 802 1 0
815 958 1 0
968 977 1 0
905 28 0 0
212 180 0 0
102 141 0 0
546 893 0 0
630 79 0 0
91 956 0 0
873 37 0 0
678 945 0 0
655 190 0 0
996 826 0 0
