30 10 10
553 171
344 924 1 0
898 886 1 0
868 605 1 0
530 297 1 0
421 654 1 0
438 664 1 0
426 635 1 0
533 319 1 0
384 903 1 0
569 288 1 0
878 886 0 0
882 618 0 0
565 340 0 0
408 669 0 0
314 953 0 0
441 666 0 0
899 598 0 0
301 917 0 0
355 969 0 0
913 905 0 0
837 627 0 0
849 898 0 0
570 259 0 0
542 252 0 0
922 916 0 0
902 623 0 0
316 973 0 0
402 634 0 0
882 584 0 0
494 329 0 0
