30 10 10
212 943
594 505 1 0
340 731 1 0
93 163 1 0
827 229 1 0
419 756 1 0
573 517 1 0
582 516 1 0
869 236 1 0
788 205 1 0
328 757 1 0
467 724 0 0
349 780 0 0
836 200 0 0
806 261 0 0
403 746 0 0
376 728 0 0
87 145 0 0
135 155 0 0
856 258 0 0
573 506 0 0
365 765 0 0
50 210 0 0
778 273 0 0
613 495 0 0
613 509 0 0
370 748 0 0
384 742 0 0
806 230 0 0
314 763 0 0
836 195 0 0
