30 20 10
992 796
865 886 1 0
745 645 1 0
99 215 1 0
529 913 1 0
337 556 1 0
308 550 1 0
776 686 1 0
523 873 1 0
854 910 1 0
107 215 1 0
732 661 1 0
495 882 1 0
74 228 1 0
847 874 1 0
531 949 1 0
503 949 1 0
552 939 1 0
384 544 1 0
54 257 1 0
778 654 1 0
832 923 0 0
736 674 0 0
548 928 0 0
535 866 0 0
147 178 0 0
838 874 0 0
754 621 0 0
709 598 0 0
306 536 0 0
108 219 0 0
