30 20 10
958 782
101 534 1 0
275 468 1 0
246 122 1 0
239 519 1 0
750 485 1 0
735 522 1 0
67 568 1 0
700 472 1 0
269 499 1 0
239 444 1 0
732 504 1 0
264 100 1 0
724 485 1 0
302 426 1 0
274 503 1 0
776 517 1 0
303 469 1 0
255 151 1 0
256 127 1 0
283 463 1 0
128 546 0 0
253 93 0 0
111 532 0 0
316 512 0 0
744 453 0 0
55 485 0 0
124 521 0 0
148 538 0 0
262 502 0 0
211 542 0 0
