40 10 10
998 64
918 475 1 0
314 546 1 0
316 612 1 0
850 232 1 0
441 129 1 0
301 595 1 0
882 506 1 0
301 650 1 0
317 606 1 0
874 224 1 0
936 487 0 0
314 522 0 0
891 488 0 0
330 576 0 0
943 459 0 0
438 100 0 0
284 564 0 0
485 174 0 0
337 558 0 0
285 607 0 0
361 598 0 0
299 588 0 0
480 155 0 0
909 428 0 0
363 568 0 0
967 441 0 0
944 467 0 0
297 636 0 0
845 261 0 0
888 186 0 0
315 616 0 0
853 210 0 0
272 652 0 0
363 500 0 0
363 660 0 0
362 500 0 0
457 106 0 0
903 434 0 0
280 659 0 0
417 134 0 0
