40 30 10
879 647
198 263 1 0
811 101 1 0
467 251 1 0
783 638 1 0
703 865 1 0
211 229 1 0
822 642 1 0
430 207 1 0
492 251 1 0
515 245 1 0
756 659 1 0
235 222 1 0
447 261 1 0
847 116 1 0
473 260 1 0
686 838 1 0
814 609 1 0
774 85 1 0
230 228 1 0
799 687 1 0
845 121 1 0
803 682 1 0
695 899 1 0
211 241 1 0
818 595 1 0
834 78 1 0
790 687 1 0
832 637 1 0
818 590 1 0
848 75 1 0
477 274 0 0
721 816 0 0
720 856 0 0
774 90 0 0
815 608 0 0
207 234 0 0
809 686 0 0
490 281 0 0
795 603 0 0
739 608 0 0
