40 20 10
481 771
354 112 1 0
572 186 1 0
599 174 1 0
884 108 1 0
646 320 1 0
369 90 1 0
841 93 1 0
620 233 1 0
838 100 1 0
914 130 1 0
555 221 1 0
611 148 1 0
864 135 1 0
582 185 1 0
611 146 1 0
647 179 1 0
315 125 1 0
580 139 1 0
919 75 1 0
607 177 1 0
623 198 0 0
354 158 0 0
398 147 0 0
625 169 0 0
584 153 0 0
641 300 0 0
585 168 0 0
577 170 0 0
589 226 0 0
883 142 0 0
598 189 0 0
859 100 0 0
844 111 0 0
324 153 0 0
847 149 0 0
676 307 0 0
394 80 0 0
592 133 0 0
651 314 0 0
599 184 0 0
