40 20 10
445 491
852 102 1 0
390 121 1 0
580 273 1 0
758 297 1 0
813 781 1 0
346 104 1 0
771 316 1 0
832 782 1 0
822 809 1 0
797 322 1 0
796 261 1 0
861 763 1 0
783 247 1 0
399 136 1 0
887 56 1 0
882 79 1 0
846 95 1 0
803 117 1 0
811 747 1 0
821 763 1 0
822 96 0 0
410 116 0 0
862 788 0 0
373 165 0 0
587 246 0 0
416 71 0 0
812 71 0 0
543 294 0 0
609 229 0 0
853 801 0 0
824 789 0 0
590 264 0 0
826 115 0 0
888 105 0 0
798 784 0 0
724 323 0 0
710 313 0 0
892 124 0 0
362 136 0 0
841 141 0 0
