50 25 13
618 880
82 322 1 0
393 197 1 0
264 459 1 0
452 206 1 0
557 839 1 0
476 101 1 0
593 816 1 0
523 105 1 0
295 494 1 0
515 838 1 0
32 294 1 0
567 867 1 0
462 135 1 0
430 188 1 0
465 149 1 0
375 178 1 0
405 203 1 0
446 145 1 0
400 157 1 0
522 150 1 0
455 128 1 0
56 308 1 0
350 215 1 0
480 240 1 0
455 198 1 0
297 470 0 0
300 420 0 0
103 362 0 0
530 808 0 0
431 241 0 0
576 829 0 0
251 437 0 0
345 150 0 0
229 481 0 0
585 831 0 0
495 222 0 0
106 276 0 0
280 468 0 0
560 808 0 0
104 282 0 0
407 211 0 0
462 103 0 0
578 878 0 0
507 113 0 0
370 198 0 0
112 289 0 0
313 450 0 0
408 241 0 0
479 214 0 0
483 126 0 0
