80 40 20
556 558
312 897 1 0
288 877 1 0
180 695 1 0
449 803 1 0
641 382 1 0
631 176 1 0
310 361 1 0
169 833 1 0
768 461 1 0
730 189 1 0
627 359 1 0
306 357 1 0
325 884 1 0
124 856 1 0
131 853 1 0
142 838 1 0
336 878 1 0
797 500 1 0
812 506 1 0
216 665 1 0
643 187 1 0
668 177 1 0
165 743 1 0
292 913 1 0
129 791 1 0
694 147 1 0
627 203 1 0
765 226 1 0
418 812 1 0
733 153 1 0
149 847 1 0
667 146 1 0
282 367 1 0
631 386 1 0
170 806 1 0
250 845 1 0
764 175 1 0
124 809 1 0
467 820 1 0
590 154 1 0
280 880 0 0
314 931 0 0
682 364 0 0
415 785 0 0
485 821 0 0
753 222 0 0
319 898 0 0
462 786 0 0
624 334 0 0
284 920 0 0
188 693 0 0
471 812 0 0
213 687 0 0
260 905 0 0
195 862 0 0
638 127 0 0
625 143 0 0
735 490 0 0
120 814 0 0
752 478 0 0
208 853 0 0
680 373 0 0
153 817 0 0
808 416 0 0
305 919 0 0
440 832 0 0
276 861 0 0
271 909 0 0
290 367 0 0
448 754 0 0
688 199 0 0
288 312 0 0
195 655 0 0
592 367 0 0
190 697 0 0
179 681 0 0
677 142 0 0
624 422 0 0
729 423 0 0
180 727 0 0
