100 50 25
840 325
273 622 1 0
249 644 1 0
582 72 1 0
277 478 1 0
793 889 1 0
305 456 1 0
796 530 1 0
845 609 1 0
399 877 1 0
302 395 1 0
922 871 1 0
886 304 1 0
905 843 1 0
395 870 1 0
769 517 1 0
748 887 1 0
876 611 1 0
272 464 1 0
251 636 1 0
623 80 1 0
432 914 1 0
220 597 1 0
940 824 1 0
354 892 1 0
335 473 1 0
830 633 1 0
585 58 1 0
820 613 1 0
247 634 1 0
264 431 1 0
829 882 1 0
293 385 1 0
814 920 1 0
253 685 1 0
594 110 1 0
327 437 1 0
561 57 1 0
890 654 1 0
885 580 1 0
605 55 1 0
264 478 1 0
786 508 1 0
965 890 1 0
268 430 1 0
305 621 1 0
265 578 1 0
262 375 1 0
963 889 1 0
934 271 1 0
242 632 1 0
830 643 0 0
837 903 0 0
259 505 0 0
802 626 0 0
896 275 0 0
263 661 0 0
839 880 0 0
295 393 0 0
563 40 0 0
770 901 0 0
358 845 0 0
829 575 0 0
927 317 0 0
850 567 0 0
321 614 0 0
807 617 0 0
270 616 0 0
867 617 0 0
291 633 0 0
793 895 0 0
234 594 0 0
246 638 0 0
813 570 0 0
850 292 0 0
939 911 0 0
805 867 0 0
544 94 0 0
831 865 0 0
347 411 0 0
915 899 0 0
745 919 0 0
262 494 0 0
302 439 0 0
416 867 0 0
592 38 0 0
285 585 0 0
585 118 0 0
302 480 0 0
294 378 0 0
333 427 0 0
750 915 0 0
887 284 0 0
268 446 0 0
761 573 0 0
829 565 0 0
805 646 0 0
872 645 0 0
365 880 0 0
263 639 0 0
812 541 0 0
